<?xml version="1.0" encoding="utf-8"?>
<TestRecord xmlns:xsi="http://www.w3.org/2001/XMLSchema-instance" xmlns:xsd="http://www.w3.org/2001/XMLSchema">
  <Results>
    <UnitTestResult>
      <TestDate>2015-02-07T16:52:33</TestDate>
      <Passed>6</Passed>
      <Errors>0</Errors>
      <Failures>1</Failures>
      <Inconclusive>0</Inconclusive>
      <NotRunnable>0</NotRunnable>
      <Skipped>0</Skipped>
      <Ignored>0</Ignored>
      <Time />
    </UnitTestResult>
    <UnitTestResult>
      <TestDate>2015-02-07T16:55:25</TestDate>
      <Passed>6</Passed>
      <Errors>0</Errors>
      <Failures>1</Failures>
      <Inconclusive>0</Inconclusive>
      <NotRunnable>0</NotRunnable>
      <Skipped>0</Skipped>
      <Ignored>0</Ignored>
      <Time />
    </UnitTestResult>
  </Results>
</TestRecord>